
################################################################################
# Gelman-Rubin Diagnostic
################################################################################

Generally the Gelman diagnostic should be < 1.05


Out of 1106 variables: 64 > 1.01

                      
9 > 1.05

                      
4 > 1.1


The worst variables are:

              Point est. Upper C.I.
ilr.fac1[4,1]   1.191877   1.270907
fac1.sig        1.150114   1.220271
ilr.fac1[2,1]   1.112774   1.155191
ilr.fac1[7,1]   1.111776   1.151184
ilr.fac1[6,1]   1.072769   1.100978
ilr.fac1[3,1]   1.067536   1.089154
ilr.fac1[5,1]   1.063428   1.083050
p.global[1]     1.051804   1.055039
p.global[2]     1.051804   1.055039
ilr.fac1[1,1]   1.047120   1.063108


And here are the Gelman diagnostics for all variables:

              Point est. Upper C.I.
deviance       1.0010736  1.0032132
fac1.sig       1.1501144  1.2202712
ilr.cont1      1.0051534  1.0134048
ilr.fac1[1,1]  1.0471203  1.0631082
ilr.fac1[2,1]  1.1127735  1.1551915
ilr.fac1[3,1]  1.0675361  1.0891538
ilr.fac1[4,1]  1.1918773  1.2709066
ilr.fac1[5,1]  1.0634275  1.0830503
ilr.fac1[6,1]  1.0727690  1.1009779
ilr.fac1[7,1]  1.1117757  1.1511845
ilr.global     1.0029078  1.0063757
loglik[1]      1.0001337  1.0013017
loglik[10]     1.0001197  1.0017540
loglik[100]    1.0005540  1.0007765
loglik[101]    1.0000440  1.0005443
loglik[102]    1.0022687  1.0062025
loglik[103]    1.0019344  1.0061642
loglik[104]    1.0001705  1.0006461
loglik[105]    0.9997968  1.0000606
loglik[106]    0.9998240  1.0003062
loglik[107]    1.0014161  1.0030031
loglik[108]    1.0003364  1.0008179
loglik[109]    0.9996306  0.9996565
loglik[11]     0.9999877  1.0005682
loglik[110]    1.0011994  1.0033006
loglik[111]    1.0021946  1.0061946
loglik[112]    0.9998241  1.0002667
loglik[113]    1.0012218  1.0034127
loglik[114]    1.0013209  1.0058073
loglik[115]    0.9997875  1.0002492
loglik[116]    1.0012652  1.0036700
loglik[117]    0.9999221  1.0002569
loglik[118]    1.0007603  1.0011312
loglik[119]    0.9999664  1.0001875
loglik[12]     1.0002541  1.0010323
loglik[120]    0.9998401  1.0006805
loglik[121]    1.0016724  1.0034618
loglik[122]    1.0025581  1.0053633
loglik[123]    1.0015082  1.0020940
loglik[124]    1.0016990  1.0020415
loglik[125]    1.0003894  1.0020086
loglik[126]    1.0012266  1.0022792
loglik[127]    1.0000921  1.0005089
loglik[128]    1.0016851  1.0042918
loglik[129]    1.0014031  1.0026757
loglik[13]     1.0003157  1.0013847
loglik[130]    1.0011248  1.0018767
loglik[131]    1.0011000  1.0019179
loglik[132]    1.0009615  1.0022305
loglik[133]    1.0006594  1.0033001
loglik[134]    1.0007190  1.0035713
loglik[135]    1.0003059  1.0011167
loglik[136]    1.0007472  1.0037904
loglik[137]    1.0007765  1.0039339
loglik[138]    1.0004070  1.0027481
loglik[139]    1.0003181  1.0022904
loglik[14]     1.0002704  1.0005698
loglik[140]    1.0008166  1.0041399
loglik[141]    1.0004002  1.0026685
loglik[142]    1.0009975  1.0047201
loglik[143]    1.0006470  1.0032993
loglik[144]    0.9997307  0.9998547
loglik[145]    1.0011371  1.0054491
loglik[146]    1.0009764  1.0044983
loglik[147]    1.0002237  1.0014361
loglik[148]    1.0012315  1.0054676
loglik[149]    1.0008419  1.0035174
loglik[15]     0.9999795  1.0007057
loglik[150]    0.9995854  0.9997232
loglik[151]    1.0002255  1.0019411
loglik[152]    0.9996948  1.0000836
loglik[153]    1.0012184  1.0049648
loglik[154]    1.0017300  1.0073836
loglik[155]    1.0000569  1.0014951
loglik[156]    1.0012848  1.0059440
loglik[157]    1.0011254  1.0043518
loglik[158]    1.0011761  1.0053407
loglik[159]    1.0003370  1.0018234
loglik[16]     1.0005744  1.0028150
loglik[160]    1.0012202  1.0040238
loglik[161]    1.0000716  1.0014010
loglik[162]    1.0004977  1.0020876
loglik[163]    1.0015196  1.0056631
loglik[164]    0.9998882  1.0005135
loglik[165]    1.0028052  1.0115586
loglik[166]    1.0016102  1.0057030
loglik[167]    1.0012470  1.0033969
loglik[168]    1.0009480  1.0026005
loglik[169]    1.0011674  1.0050781
loglik[17]     1.0013704  1.0063285
loglik[170]    1.0014586  1.0057484
loglik[171]    1.0012397  1.0029855
loglik[172]    1.0010501  1.0038339
loglik[173]    1.0014066  1.0055197
loglik[174]    1.0009848  1.0036914
loglik[175]    1.0017331  1.0072392
loglik[176]    1.0016761  1.0070310
loglik[177]    1.0012257  1.0039415
loglik[178]    0.9999500  1.0006896
loglik[179]    1.0013981  1.0044201
loglik[18]     0.9998893  1.0004994
loglik[180]    1.0001316  1.0011148
loglik[181]    1.0002377  1.0016843
loglik[182]    1.0012789  1.0040762
loglik[183]    0.9998994  1.0006834
loglik[184]    1.0007271  1.0033659
loglik[185]    1.0016345  1.0070756
loglik[186]    1.0010620  1.0043523
loglik[187]    1.0014218  1.0045268
loglik[188]    1.0010350  1.0035032
loglik[189]    1.0006854  1.0033015
loglik[19]     1.0002886  1.0008156
loglik[190]    1.0015200  1.0067293
loglik[191]    1.0010973  1.0031695
loglik[192]    1.0009921  1.0019402
loglik[193]    1.0003840  1.0024589
loglik[194]    1.0002120  1.0014819
loglik[195]    1.0015272  1.0016181
loglik[196]    1.0009335  1.0042889
loglik[197]    1.0020201  1.0061230
loglik[198]    1.0007378  1.0034408
loglik[199]    1.0000188  1.0010692
loglik[2]      1.0005262  1.0017085
loglik[20]     1.0003953  1.0004412
loglik[200]    1.0017882  1.0033357
loglik[201]    1.0012777  1.0045838
loglik[202]    1.0009737  1.0033108
loglik[203]    1.0020692  1.0060283
loglik[204]    1.0019000  1.0023234
loglik[205]    1.0015085  1.0062294
loglik[206]    1.0012235  1.0040952
loglik[207]    1.0008779  1.0030217
loglik[208]    1.0002102  1.0012540
loglik[209]    1.0001814  1.0009710
loglik[21]     1.0005131  1.0005293
loglik[210]    1.0011054  1.0033953
loglik[211]    1.0010103  1.0038745
loglik[212]    1.0012070  1.0050600
loglik[213]    1.0010863  1.0032487
loglik[214]    1.0001008  1.0008230
loglik[215]    1.0011802  1.0023161
loglik[216]    1.0009465  1.0031973
loglik[217]    1.0008907  1.0034479
loglik[218]    1.0011117  1.0022887
loglik[219]    1.0006974  1.0008301
loglik[22]     1.0002902  1.0003915
loglik[220]    1.0008173  1.0010714
loglik[221]    1.0004088  1.0020472
loglik[222]    1.0005403  1.0009124
loglik[223]    1.0005423  1.0006554
loglik[224]    1.0007846  1.0020095
loglik[225]    0.9998610  0.9999015
loglik[226]    0.9998670  0.9998693
loglik[227]    1.0006545  1.0027975
loglik[228]    1.0012147  1.0036760
loglik[229]    1.0004843  1.0023752
loglik[23]     1.0009307  1.0039980
loglik[230]    1.0007366  1.0027192
loglik[231]    1.0001865  1.0014061
loglik[232]    1.0015838  1.0071453
loglik[233]    1.0005312  1.0012528
loglik[234]    1.0005548  1.0022571
loglik[235]    1.0005180  1.0014174
loglik[236]    1.0005038  1.0014534
loglik[237]    1.0007037  1.0028725
loglik[238]    1.0003338  1.0012544
loglik[239]    1.0005263  1.0024555
loglik[24]     1.0011152  1.0052872
loglik[240]    1.0006617  1.0029301
loglik[241]    1.0005075  1.0026648
loglik[242]    1.0009640  1.0036898
loglik[243]    1.0010199  1.0038039
loglik[244]    1.0010824  1.0051564
loglik[245]    1.0001003  1.0015254
loglik[246]    1.0001396  1.0016602
loglik[247]    1.0001886  1.0015276
loglik[248]    1.0006725  1.0007484
loglik[249]    1.0008121  1.0037811
loglik[25]     1.0008361  1.0033730
loglik[250]    1.0003638  1.0021433
loglik[251]    1.0012149  1.0048308
loglik[252]    1.0004346  1.0020494
loglik[253]    1.0012695  1.0050705
loglik[254]    1.0008114  1.0039897
loglik[255]    1.0003181  1.0019499
loglik[256]    1.0010745  1.0050181
loglik[257]    1.0004589  1.0005751
loglik[258]    1.0004205  1.0028030
loglik[259]    1.0002829  1.0018677
loglik[26]     1.0002501  1.0008550
loglik[260]    1.0012874  1.0057128
loglik[261]    1.0000052  1.0011796
loglik[262]    1.0010818  1.0048600
loglik[263]    1.0013748  1.0059595
loglik[264]    1.0008537  1.0012574
loglik[265]    1.0017259  1.0059791
loglik[266]    1.0008014  1.0014705
loglik[267]    1.0002042  1.0020759
loglik[268]    1.0001471  1.0014201
loglik[269]    1.0012939  1.0054325
loglik[27]     1.0009888  1.0045987
loglik[270]    1.0008373  1.0014703
loglik[271]    1.0013512  1.0052879
loglik[272]    1.0008571  1.0014543
loglik[273]    0.9995625  0.9996997
loglik[274]    1.0015122  1.0065427
loglik[275]    1.0015408  1.0066856
loglik[276]    1.0016131  1.0068808
loglik[277]    0.9996061  0.9998282
loglik[278]    1.0011231  1.0047846
loglik[279]    1.0002606  1.0019394
loglik[28]     0.9999944  1.0004446
loglik[280]    1.0014967  1.0066951
loglik[281]    1.0004869  1.0030185
loglik[282]    1.0014724  1.0065631
loglik[283]    1.0006874  1.0036354
loglik[284]    1.0006309  1.0028491
loglik[285]    0.9996097  0.9998726
loglik[286]    1.0005070  1.0019448
loglik[287]    1.0004947  1.0025261
loglik[288]    1.0004615  1.0026894
loglik[289]    1.0007446  1.0019885
loglik[29]     1.0002603  1.0003162
loglik[290]    1.0016149  1.0070052
loglik[291]    1.0016023  1.0070108
loglik[292]    1.0015623  1.0067751
loglik[293]    1.0006513  1.0021978
loglik[294]    1.0015436  1.0067775
loglik[295]    1.0015749  1.0068735
loglik[296]    1.0005205  1.0025725
loglik[297]    1.0014057  1.0061166
loglik[298]    1.0007583  1.0032348
loglik[299]    1.0013922  1.0060395
loglik[3]      1.0007930  1.0024477
loglik[30]     1.0005116  1.0008974
loglik[300]    1.0007496  1.0032026
loglik[301]    1.0013351  1.0052632
loglik[302]    1.0005277  1.0021798
loglik[303]    1.0010193  1.0042303
loglik[304]    1.0009547  1.0031449
loglik[305]    1.0004623  1.0019821
loglik[306]    1.0002965  1.0022658
loglik[307]    1.0003822  1.0021175
loglik[308]    1.0002825  1.0022834
loglik[309]    1.0002512  1.0018173
loglik[31]     1.0009825  1.0046706
loglik[310]    1.0008967  1.0045546
loglik[311]    1.0001610  1.0015174
loglik[312]    1.0001487  1.0015312
loglik[313]    1.0001824  1.0018797
loglik[314]    1.0001579  1.0011179
loglik[315]    1.0000741  1.0009531
loglik[316]    1.0001279  1.0007275
loglik[317]    1.0003094  1.0017031
loglik[318]    1.0002118  1.0011899
loglik[319]    1.0004414  1.0008038
loglik[32]     0.9998832  1.0004361
loglik[320]    1.0006046  1.0027659
loglik[321]    1.0004843  1.0008429
loglik[322]    1.0011056  1.0053041
loglik[323]    1.0004383  1.0012119
loglik[324]    1.0009742  1.0045987
loglik[325]    1.0006790  1.0023845
loglik[326]    1.0005605  1.0007664
loglik[327]    1.0006054  1.0006473
loglik[328]    1.0002458  1.0004694
loglik[329]    1.0010002  1.0047535
loglik[33]     0.9999538  1.0001967
loglik[330]    1.0010740  1.0051413
loglik[331]    1.0007449  1.0030090
loglik[332]    1.0009129  1.0041631
loglik[333]    1.0009024  1.0041419
loglik[334]    0.9998105  1.0000726
loglik[335]    1.0008395  1.0033318
loglik[336]    1.0007209  1.0011567
loglik[337]    1.0009148  1.0042825
loglik[338]    1.0008533  1.0037009
loglik[339]    1.0009135  1.0043571
loglik[34]     1.0003758  1.0006548
loglik[340]    1.0008254  1.0033536
loglik[341]    1.0006985  1.0013280
loglik[342]    1.0008254  1.0040610
loglik[343]    0.9996857  1.0000675
loglik[344]    1.0007207  1.0014192
loglik[345]    1.0008679  1.0031975
loglik[346]    0.9996787  0.9998249
loglik[347]    1.0006983  1.0022208
loglik[348]    1.0004388  1.0025823
loglik[349]    1.0008761  1.0039917
loglik[35]     1.0010050  1.0014237
loglik[350]    1.0007153  1.0022440
loglik[351]    1.0017116  1.0065486
loglik[352]    0.9999780  1.0010937
loglik[353]    1.0015927  1.0056629
loglik[354]    1.0013965  1.0054373
loglik[355]    1.0016131  1.0060141
loglik[356]    1.0008982  1.0041602
loglik[357]    1.0016647  1.0065833
loglik[358]    1.0007812  1.0030165
loglik[359]    1.0005670  1.0013693
loglik[36]     1.0007499  1.0011491
loglik[37]     1.0008683  1.0015754
loglik[38]     1.0009142  1.0012330
loglik[39]     1.0003683  1.0008575
loglik[4]      1.0007450  1.0034616
loglik[40]     1.0002896  1.0011782
loglik[41]     1.0007714  1.0025478
loglik[42]     1.0008514  1.0017494
loglik[43]     0.9997356  0.9998868
loglik[44]     1.0009227  1.0018765
loglik[45]     1.0008425  1.0023941
loglik[46]     1.0002957  1.0017557
loglik[47]     1.0007729  1.0015076
loglik[48]     0.9996227  0.9998738
loglik[49]     0.9997003  0.9997627
loglik[5]      1.0006819  1.0021184
loglik[50]     1.0004126  1.0016926
loglik[51]     1.0005948  1.0022462
loglik[52]     1.0005079  1.0013085
loglik[53]     1.0020370  1.0046074
loglik[54]     1.0006137  1.0033849
loglik[55]     1.0005409  1.0016081
loglik[56]     1.0008604  1.0027979
loglik[57]     1.0002780  1.0014573
loglik[58]     0.9996331  0.9998567
loglik[59]     1.0013592  1.0052948
loglik[6]      1.0005314  1.0024970
loglik[60]     1.0015350  1.0049221
loglik[61]     1.0005247  1.0023532
loglik[62]     1.0003681  1.0010784
loglik[63]     1.0006068  1.0019804
loglik[64]     1.0006247  1.0018885
loglik[65]     1.0006514  1.0019227
loglik[66]     1.0007048  1.0018967
loglik[67]     1.0007364  1.0021502
loglik[68]     1.0009029  1.0021702
loglik[69]     0.9999985  1.0002931
loglik[7]      1.0000728  1.0009315
loglik[70]     1.0007331  1.0014448
loglik[71]     1.0012344  1.0045518
loglik[72]     0.9999589  1.0007303
loglik[73]     1.0004555  1.0017517
loglik[74]     1.0015489  1.0040447
loglik[75]     1.0001020  1.0017072
loglik[76]     1.0012305  1.0031991
loglik[77]     1.0014250  1.0048762
loglik[78]     1.0007857  1.0015292
loglik[79]     1.0024591  1.0045089
loglik[8]      1.0002978  1.0017817
loglik[80]     1.0003469  1.0013019
loglik[81]     1.0022894  1.0043357
loglik[82]     1.0005333  1.0015328
loglik[83]     1.0003876  1.0004263
loglik[84]     1.0007170  1.0029637
loglik[85]     1.0002650  1.0006759
loglik[86]     1.0000672  1.0007026
loglik[87]     1.0005568  1.0005590
loglik[88]     1.0001857  1.0003262
loglik[89]     1.0005374  1.0007476
loglik[9]      1.0005059  1.0031961
loglik[90]     1.0002509  1.0005051
loglik[91]     1.0002086  1.0003116
loglik[92]     1.0003866  1.0009800
loglik[93]     1.0005334  1.0026546
loglik[94]     1.0004776  1.0013751
loglik[95]     1.0000452  1.0008734
loglik[96]     1.0010781  1.0020810
loglik[97]     1.0001256  1.0003376
loglik[98]     1.0006498  1.0013744
loglik[99]     0.9999209  0.9999982
p.fac1[1,1]    1.0019342  1.0077833
p.fac1[1,2]    1.0019342  1.0077833
p.fac1[2,1]    1.0070938  1.0201657
p.fac1[2,2]    1.0070938  1.0201657
p.fac1[3,1]    1.0027494  1.0083699
p.fac1[3,2]    1.0027494  1.0083699
p.fac1[4,1]    1.0023291  1.0067789
p.fac1[4,2]    1.0023291  1.0067789
p.fac1[5,1]    1.0029094  1.0100639
p.fac1[5,2]    1.0029094  1.0100639
p.fac1[6,1]    1.0048778  1.0142606
p.fac1[6,2]    1.0048778  1.0142606
p.fac1[7,1]    1.0043638  1.0137781
p.fac1[7,2]    1.0043638  1.0137781
p.global[1]    1.0518045  1.0550390
p.global[2]    1.0518045  1.0550390
p.ind[1,1]     1.0115184  1.0201779
p.ind[1,2]     1.0115184  1.0201779
p.ind[10,1]    1.0032145  1.0096384
p.ind[10,2]    1.0032145  1.0096384
p.ind[100,1]   1.0027428  1.0099115
p.ind[100,2]   1.0027428  1.0099115
p.ind[101,1]   1.0028099  1.0100416
p.ind[101,2]   1.0028099  1.0100416
p.ind[102,1]   1.0027444  1.0083426
p.ind[102,2]   1.0027444  1.0083426
p.ind[103,1]   1.0027444  1.0083426
p.ind[103,2]   1.0027444  1.0083426
p.ind[104,1]   1.0028099  1.0100416
p.ind[104,2]   1.0028099  1.0100416
p.ind[105,1]   1.0025798  1.0101551
p.ind[105,2]   1.0025798  1.0101551
p.ind[106,1]   1.0022713  1.0061448
p.ind[106,2]   1.0022713  1.0061448
p.ind[107,1]   1.0030094  1.0091946
p.ind[107,2]   1.0030094  1.0091946
p.ind[108,1]   1.0056892  1.0174870
p.ind[108,2]   1.0056892  1.0174870
p.ind[109,1]   1.0083183  1.0206822
p.ind[109,2]   1.0083183  1.0206822
p.ind[11,1]    1.0015772  1.0067356
p.ind[11,2]    1.0015772  1.0067356
p.ind[110,1]   1.0030994  1.0096912
p.ind[110,2]   1.0030994  1.0096912
p.ind[111,1]   1.0027444  1.0083426
p.ind[111,2]   1.0027444  1.0083426
p.ind[112,1]   1.0015732  1.0046554
p.ind[112,2]   1.0015732  1.0046554
p.ind[113,1]   1.0030994  1.0096912
p.ind[113,2]   1.0030994  1.0096912
p.ind[114,1]   1.0053064  1.0165769
p.ind[114,2]   1.0053064  1.0165769
p.ind[115,1]   1.0023822  1.0096362
p.ind[115,2]   1.0023822  1.0096362
p.ind[116,1]   1.0030994  1.0096912
p.ind[116,2]   1.0030994  1.0096912
p.ind[117,1]   1.0015732  1.0046554
p.ind[117,2]   1.0015732  1.0046554
p.ind[118,1]   1.0028099  1.0100416
p.ind[118,2]   1.0028099  1.0100416
p.ind[119,1]   1.0020841  1.0054638
p.ind[119,2]   1.0020841  1.0054638
p.ind[12,1]    1.0086253  1.0206322
p.ind[12,2]    1.0086253  1.0206322
p.ind[120,1]   1.0025798  1.0101551
p.ind[120,2]   1.0025798  1.0101551
p.ind[121,1]   1.0022713  1.0061448
p.ind[121,2]   1.0022713  1.0061448
p.ind[122,1]   1.0030094  1.0091946
p.ind[122,2]   1.0030094  1.0091946
p.ind[123,1]   1.0026797  1.0097808
p.ind[123,2]   1.0026797  1.0097808
p.ind[124,1]   1.0027428  1.0099115
p.ind[124,2]   1.0027428  1.0099115
p.ind[125,1]   1.0028751  1.0108789
p.ind[125,2]   1.0028751  1.0108789
p.ind[126,1]   1.0020841  1.0054638
p.ind[126,2]   1.0020841  1.0054638
p.ind[127,1]   1.0028099  1.0100416
p.ind[127,2]   1.0028099  1.0100416
p.ind[128,1]   1.0022713  1.0061448
p.ind[128,2]   1.0022713  1.0061448
p.ind[129,1]   1.0022713  1.0061448
p.ind[129,2]   1.0022713  1.0061448
p.ind[13,1]    1.0060489  1.0108896
p.ind[13,2]    1.0060489  1.0108896
p.ind[130,1]   1.0020841  1.0054638
p.ind[130,2]   1.0020841  1.0054638
p.ind[131,1]   1.0022713  1.0061448
p.ind[131,2]   1.0022713  1.0061448
p.ind[132,1]   1.0022713  1.0061448
p.ind[132,2]   1.0022713  1.0061448
p.ind[133,1]   1.0010548  1.0050200
p.ind[133,2]   1.0010548  1.0050200
p.ind[134,1]   1.0010548  1.0050200
p.ind[134,2]   1.0010548  1.0050200
p.ind[135,1]   1.0012802  1.0048366
p.ind[135,2]   1.0012802  1.0048366
p.ind[136,1]   1.0010548  1.0050200
p.ind[136,2]   1.0010548  1.0050200
p.ind[137,1]   1.0010548  1.0050200
p.ind[137,2]   1.0010548  1.0050200
p.ind[138,1]   1.0016560  1.0068416
p.ind[138,2]   1.0016560  1.0068416
p.ind[139,1]   0.9998319  1.0003979
p.ind[139,2]   0.9998319  1.0003979
p.ind[14,1]    1.0086253  1.0206322
p.ind[14,2]    1.0086253  1.0206322
p.ind[140,1]   1.0010548  1.0050200
p.ind[140,2]   1.0010548  1.0050200
p.ind[141,1]   1.0014854  1.0063490
p.ind[141,2]   1.0014854  1.0063490
p.ind[142,1]   1.0010548  1.0050200
p.ind[142,2]   1.0010548  1.0050200
p.ind[143,1]   1.0014854  1.0063490
p.ind[143,2]   1.0014854  1.0063490
p.ind[144,1]   1.0006182  1.0030435
p.ind[144,2]   1.0006182  1.0030435
p.ind[145,1]   1.0003203  1.0020979
p.ind[145,2]   1.0003203  1.0020979
p.ind[146,1]   1.0010548  1.0050200
p.ind[146,2]   1.0010548  1.0050200
p.ind[147,1]   1.0012607  1.0047783
p.ind[147,2]   1.0012607  1.0047783
p.ind[148,1]   1.0010311  1.0049366
p.ind[148,2]   1.0010311  1.0049366
p.ind[149,1]   0.9999360  1.0008603
p.ind[149,2]   0.9999360  1.0008603
p.ind[15,1]    1.0086253  1.0206322
p.ind[15,2]    1.0086253  1.0206322
 [ getOption("max.print") est atteint -- 606 lignes omises ]

################################################################################
# Geweke Diagnostic
################################################################################

The Geweke diagnostic is a standard z-score, so we'd expect 5% to be outside +/-1.96
Number of variables outside +/-1.96 in each chain (out of 
1106
):


       Chain 1 Chain 2 Chain 3
Geweke      43       2      10


And here are the Geweke diagnostics for all variables:

              chain1 chain2 chain3
deviance      -0.201 -0.717 -1.261
fac1.sig      -0.658  1.186  0.183
ilr.cont1      0.612  0.956  1.924
ilr.fac1[1,1] -0.915  1.378 -0.105
ilr.fac1[2,1] -0.270 -0.393 -0.983
ilr.fac1[3,1] -0.553  0.818 -0.396
ilr.fac1[4,1] -1.320  0.626 -0.608
ilr.fac1[5,1] -0.067  0.395 -0.527
ilr.fac1[6,1] -0.417  1.272 -0.656
ilr.fac1[7,1]  1.441  0.698 -0.220
ilr.global    -0.245 -1.043 -1.451
loglik[1]      0.028  0.262  1.080
loglik[10]    -0.774 -0.365  0.426
loglik[100]    1.253  0.319  0.703
loglik[101]   -0.417 -1.602 -1.652
loglik[102]    1.709  1.228  0.668
loglik[103]    1.411  1.003  0.415
loglik[104]   -0.332 -1.484 -1.277
loglik[105]   -0.752  0.621  0.736
loglik[106]    0.049 -0.940 -0.253
loglik[107]    1.484  0.375  0.641
loglik[108]   -0.484 -0.787 -0.644
loglik[109]    2.009  0.569 -0.420
loglik[11]     0.007 -0.003  0.540
loglik[110]    0.995 -0.204  0.119
loglik[111]    1.286  1.536  0.912
loglik[112]   -1.031 -0.926 -1.341
loglik[113]    0.994 -0.215  0.115
loglik[114]    0.853  1.066  0.194
loglik[115]   -1.465  0.403  0.537
loglik[116]    1.026 -0.162  0.110
loglik[117]   -0.899 -0.991 -1.202
loglik[118]   -0.272 -0.230  0.282
loglik[119]    1.157  0.756  1.763
loglik[12]     0.730  0.322  0.908
loglik[120]   -1.630  0.951  0.561
loglik[121]    1.218  1.262  1.411
loglik[122]    0.726  0.277  0.546
loglik[123]    0.271  0.972  1.459
loglik[124]    0.004  0.688  1.314
loglik[125]   -1.129  0.867  0.518
loglik[126]    1.171  1.275  1.566
loglik[127]   -1.171 -0.813 -0.769
loglik[128]    0.554  1.008  1.550
loglik[129]    0.552  1.186  1.740
loglik[13]     0.037 -0.019  0.905
loglik[130]    0.255  1.101  1.828
loglik[131]    0.226  1.045  1.768
loglik[132]    0.042  1.387  1.483
loglik[133]    0.331 -0.657 -0.131
loglik[134]    0.397 -0.703 -0.153
loglik[135]   -0.167  1.303  0.012
loglik[136]    0.528 -0.874 -0.170
loglik[137]    0.591 -0.891 -0.182
loglik[138]   -0.029 -0.957 -0.185
loglik[139]   -1.095 -0.301 -0.700
loglik[14]     0.863  0.142  0.771
loglik[140]    0.755 -0.710 -0.195
loglik[141]    0.327 -0.688  0.023
loglik[142]    1.004 -0.771 -0.245
loglik[143]    0.226 -0.727 -0.025
loglik[144]    2.400  0.046  1.320
loglik[145]   -0.879 -0.018 -0.225
loglik[146]    1.177 -0.655 -0.252
loglik[147]   -0.330  1.017 -0.135
loglik[148]    0.262 -1.133 -0.552
loglik[149]   -0.970 -0.345 -0.514
loglik[15]    -0.431 -0.266  0.549
loglik[150]   -1.588  0.491 -0.143
loglik[151]   -0.858 -1.454 -0.504
loglik[152]   -0.924  0.570 -0.046
loglik[153]    1.448 -0.751 -0.290
loglik[154]    0.727 -1.243 -0.554
loglik[155]    1.129 -0.121  0.127
loglik[156]    0.903  0.255  0.018
loglik[157]    1.542 -0.528 -0.333
loglik[158]   -0.483  0.031 -0.218
loglik[159]    1.140 -0.091  0.084
loglik[16]    -0.280  0.075  0.799
loglik[160]    0.655 -0.325 -0.068
loglik[161]    2.651  0.126  1.529
loglik[162]   -0.064  1.163 -0.036
loglik[163]   -0.647 -0.314 -0.378
loglik[164]   -0.660 -1.419 -0.868
loglik[165]   -0.075  0.793  0.260
loglik[166]   -0.553 -0.373 -0.419
loglik[167]    1.927 -0.287 -0.197
loglik[168]   -0.547 -0.834 -0.687
loglik[169]   -0.542  0.106 -0.245
loglik[17]    -0.789  0.134  0.416
loglik[170]    1.733 -0.827 -0.211
loglik[171]    2.048 -0.371 -0.235
loglik[172]    0.545 -0.055 -0.221
loglik[173]    1.763 -0.808 -0.223
loglik[174]    0.310 -0.249 -0.386
loglik[175]    0.906  0.556  0.129
loglik[176]    1.203 -1.169 -0.604
loglik[177]    2.013 -0.601 -0.150
loglik[178]    2.236  0.351  1.402
loglik[179]   -0.293 -0.590 -0.492
loglik[18]    -0.742 -0.603  0.051
loglik[180]    1.924  0.444  1.385
loglik[181]   -0.118 -0.497 -0.470
loglik[182]   -0.191 -0.517 -0.204
loglik[183]   -0.317 -0.734 -0.542
loglik[184]    0.751  0.509 -0.137
loglik[185]    1.147 -1.021 -0.236
loglik[186]   -0.294  0.040 -0.099
loglik[187]   -0.118 -0.485 -0.154
loglik[188]    1.789 -0.701 -0.382
loglik[189]    0.737  0.608 -0.146
loglik[19]    -0.220 -0.993  0.116
loglik[190]   -0.240  0.520 -0.206
loglik[191]   -0.046 -0.703 -0.430
loglik[192]    2.100 -0.327 -0.110
loglik[193]    1.361  0.417  1.080
loglik[194]    1.450  1.515  0.184
loglik[195]    0.219 -0.470 -0.353
loglik[196]    1.408  0.319 -0.031
loglik[197]    0.064 -0.249 -0.063
loglik[198]    0.292 -1.138 -0.733
loglik[199]   -0.134 -0.155 -0.512
loglik[2]     -0.116 -0.266  0.607
loglik[20]     1.008 -0.073  0.610
loglik[200]    1.660  0.523  0.083
loglik[201]    0.142  0.051  0.021
loglik[202]    0.158  0.565  0.744
loglik[203]    1.221  0.774  0.165
loglik[204]    0.889 -0.138 -0.099
loglik[205]    1.557  1.448  0.335
loglik[206]    0.445  0.057  0.152
loglik[207]    0.284 -0.552 -0.106
loglik[208]   -0.226 -1.099 -0.958
loglik[209]   -0.265  0.090 -0.537
loglik[21]     0.631 -0.299  0.389
loglik[210]    0.898  1.531  0.052
loglik[211]    1.107 -0.694 -0.388
loglik[212]    1.554  1.722  0.335
loglik[213]    0.944  1.587  0.113
loglik[214]   -0.149 -1.187 -1.010
loglik[215]    1.417 -0.614 -0.880
loglik[216]    0.546  0.256  0.310
loglik[217]    1.451  2.132  0.327
loglik[218]    1.069 -0.339 -0.233
loglik[219]    0.152 -0.885 -1.173
loglik[22]     1.854  0.272  0.405
loglik[220]    1.073 -0.848 -1.065
loglik[221]    0.399 -0.929 -0.646
loglik[222]   -0.461 -0.934 -1.201
loglik[223]    0.277 -0.968 -1.212
loglik[224]    0.578  0.495  0.526
loglik[225]   -0.359 -1.012 -0.932
loglik[226]   -0.448 -0.950 -0.913
loglik[227]    0.804 -0.320  0.260
loglik[228]    0.450  1.494 -0.074
loglik[229]    0.641 -0.387  0.156
loglik[23]     1.433  0.752  0.089
loglik[230]    0.263 -0.399 -0.408
loglik[231]    0.411 -0.677 -0.283
loglik[232]    1.051  1.397  0.172
loglik[233]    0.285  0.409  0.311
loglik[234]    0.059 -0.435 -0.445
loglik[235]    1.149  0.259  0.709
loglik[236]    1.185  0.253  0.721
loglik[237]    1.073  2.085  0.282
loglik[238]   -1.025 -1.064 -0.787
loglik[239]    1.290 -0.075  0.575
loglik[24]    -0.739  0.014  0.265
loglik[240]   -0.070 -0.350 -0.464
loglik[241]   -0.116 -0.914 -0.248
loglik[242]    0.172 -0.103 -0.304
loglik[243]    0.103  0.208 -0.102
loglik[244]    1.750  0.082  0.083
loglik[245]    1.491  0.030  0.566
loglik[246]    1.013 -0.192  0.369
loglik[247]   -1.900  0.497 -0.457
loglik[248]    1.046  0.568  0.780
loglik[249]   -0.467  0.100 -0.229
loglik[25]    -0.436 -0.180  0.335
loglik[250]   -0.244 -1.037 -0.365
loglik[251]   -0.137  0.609  0.124
loglik[252]   -0.686  0.732 -0.525
loglik[253]   -0.171  0.644  0.118
loglik[254]   -0.820  0.219 -0.186
loglik[255]    0.466  1.886  0.295
loglik[256]   -0.908  0.407 -0.041
loglik[257]    1.736  1.145  1.161
loglik[258]   -2.105  0.454 -0.630
loglik[259]    0.431  1.874  0.297
loglik[26]     2.448  0.765  0.660
loglik[260]   -0.641  0.589  0.090
loglik[261]    1.849  0.860  1.445
loglik[262]    1.518  0.357  0.173
loglik[263]   -0.549  0.723  0.175
loglik[264]    0.830  0.887  0.792
loglik[265]    1.004  0.099  0.219
loglik[266]   -0.776  0.308  0.064
loglik[267]    1.238  0.380  0.910
loglik[268]    1.798  0.930  1.280
loglik[269]    1.379  0.284  0.086
loglik[27]    -0.674 -0.073  0.227
loglik[270]    0.656  0.838  0.665
loglik[271]   -1.824  0.362 -0.352
loglik[272]    1.025  1.009  0.785
loglik[273]    1.031 -0.690 -0.395
loglik[274]   -0.662  0.843  0.264
loglik[275]   -0.717  0.866  0.283
loglik[276]   -0.686  0.877  0.223
loglik[277]    0.674 -0.736 -0.515
loglik[278]    1.214  0.390  0.319
loglik[279]    0.313  1.780  0.497
loglik[28]     2.253  0.553  0.205
loglik[280]   -1.184  0.656  0.098
loglik[281]   -1.174 -0.552 -0.511
loglik[282]   -1.311  0.684  0.154
loglik[283]    1.068  0.437  0.201
loglik[284]    1.369  1.220  1.025
loglik[285]    0.696 -0.599 -0.243
loglik[286]    1.019  1.624  1.195
loglik[287]    1.128  1.535  1.005
loglik[288]    1.007  1.410  1.078
loglik[289]    0.716  1.417  0.828
loglik[29]     1.831  0.105  0.266
loglik[290]   -1.459  0.595 -0.088
loglik[291]   -1.298  0.653 -0.033
loglik[292]   -1.499  0.663  0.053
loglik[293]    0.668  1.507  0.831
loglik[294]   -1.184  0.864  0.327
loglik[295]   -1.348  0.664 -0.008
loglik[296]    0.548  1.423  0.920
loglik[297]   -1.464  0.767  0.267
loglik[298]    0.387  1.258  0.503
loglik[299]   -1.257  0.925  0.433
loglik[3]     -0.374 -0.372  0.117
loglik[30]    -0.008 -0.500  0.141
loglik[300]    0.166  1.249  0.571
loglik[301]   -1.735  0.726  0.328
loglik[302]    0.118  1.365  0.624
loglik[303]   -1.490  0.735  0.407
loglik[304]    1.117 -0.994 -0.313
loglik[305]    1.874 -0.312 -0.381
loglik[306]   -0.638  0.334  1.342
loglik[307]   -0.286 -0.072  1.032
loglik[308]   -0.374  0.202  1.290
loglik[309]    0.204  0.418  1.205
loglik[31]    -0.750 -0.106  0.196
loglik[310]   -0.807  0.092  1.180
loglik[311]    0.398  0.531  1.209
loglik[312]   -0.041  0.236  1.211
loglik[313]   -0.308  0.256  1.151
loglik[314]    0.587  0.458  1.076
loglik[315]    0.257  0.319  1.084
loglik[316]    0.518  0.286  0.987
loglik[317]   -0.092  0.010  0.984
loglik[318]   -0.080 -0.147  0.818
loglik[319]    1.365  0.288  0.680
loglik[32]     2.322  0.519  0.343
loglik[320]   -0.277  0.010  0.708
loglik[321]    1.716  0.303  0.504
loglik[322]   -0.812  0.004  0.394
loglik[323]    2.036  0.513  0.323
loglik[324]   -0.631 -0.005  0.408
loglik[325]   -0.246 -0.251  0.443
loglik[326]    1.423 -0.101  0.302
loglik[327]    0.627 -0.312  0.345
loglik[328]    2.045  0.281  0.245
loglik[329]   -0.693 -0.006  0.300
loglik[33]     2.170  0.847  0.623
loglik[330]   -0.746 -0.009  0.241
loglik[331]   -0.504 -0.258  0.270
loglik[332]   -0.623 -0.133  0.232
loglik[333]   -0.680 -0.180  0.201
loglik[334]    2.229  0.283 -0.240
loglik[335]   -0.603 -0.233  0.147
loglik[336]    0.704 -0.543  0.038
loglik[337]   -0.710 -0.123  0.117
loglik[338]   -0.635 -0.222  0.101
loglik[339]   -0.746 -0.101  0.087
loglik[34]     1.844  0.545  0.604
loglik[340]   -0.596 -0.283  0.075
loglik[341]    0.534 -0.649 -0.067
loglik[342]    0.343  0.684 -0.182
loglik[343]    2.107  0.113 -0.530
loglik[344]    0.327 -0.712 -0.148
loglik[345]    1.579 -0.532 -0.417
loglik[346]    1.780  0.245 -0.718
loglik[347]    0.223 -0.915 -0.386
loglik[348]    0.517  0.609 -0.354
loglik[349]    2.069 -0.238 -0.537
loglik[35]     1.132 -0.477  0.247
loglik[350]   -0.234 -0.943 -0.590
loglik[351]    0.722 -0.793 -0.593
loglik[352]    1.427 -0.078 -1.127
loglik[353]    1.515 -0.520 -0.936
loglik[354]    1.104 -0.350 -1.193
loglik[355]    0.831 -0.358 -1.065
loglik[356]   -1.027 -0.927 -0.764
loglik[357]    0.032 -0.074 -0.626
loglik[358]   -0.763 -0.029 -0.351
loglik[359]   -1.393 -0.113  0.099
loglik[36]     0.270 -0.589  0.050
loglik[37]     0.926 -0.522  0.144
loglik[38]     0.949 -0.136  0.402
loglik[39]     1.708 -0.183  0.023
loglik[4]     -0.739 -0.201  0.003
loglik[40]     2.084  1.089  0.347
loglik[41]    -0.531 -0.473 -0.011
loglik[42]     1.096 -0.435  0.130
loglik[43]     2.514  0.326  0.356
loglik[44]     0.770 -0.616  0.067
loglik[45]     1.381 -0.270  0.063
loglik[46]    -1.126 -0.654 -0.528
loglik[47]     0.926 -0.254  0.116
loglik[48]     2.207  0.784  0.183
loglik[49]     2.116 -0.007  0.234
loglik[5]     -0.634 -0.580 -0.204
loglik[50]     1.939 -0.058  0.240
loglik[51]     1.746 -0.168  0.185
loglik[52]     1.512  0.493  0.650
loglik[53]     1.110  0.217  0.414
loglik[54]    -0.955 -0.145 -0.057
loglik[55]    -0.782 -0.743 -0.424
loglik[56]     0.833  1.022  0.974
loglik[57]    -1.173 -0.525 -0.353
loglik[58]     0.666  0.646 -0.370
loglik[59]     0.527  0.000 -0.304
loglik[6]     -1.038  0.226  0.371
loglik[60]    -0.737 -0.154 -0.676
loglik[61]    -0.644  0.118 -0.563
loglik[62]     0.015  0.883  0.767
loglik[63]    -1.164 -0.051 -0.067
loglik[64]    -1.109 -0.040 -0.195
loglik[65]    -1.238 -0.101 -0.087
 [ reached 'max' / getOption("max.print") -- omitted 773 rows ]
